<?xml version="1.0" encoding="UTF-8"?>
<session version="1.0">
<refactoring comment="Delete resource &apos;temp_monitor/Core/Src/ONE_Wire.c&apos;" deleteContents="false" description="Delete resource &apos;temp_monitor/Core/Src/ONE_Wire.c&apos;" element1="/temp_monitor/Core/Src/ONE_Wire.c" flags="7" id="org.eclipse.ltk.core.refactoring.delete.resources" resources="1" stamp="1638661505964"/>
</session>