main_copy.c:72:6:delay_us	24	static
main_copy.c:79:10:count_us	24	static
main_copy.c:95:9:read_bit	16	static
main_copy.c:99:6:LH_signal	16	static
main_copy.c:106:10:reset	8	static
main_copy.c:112:6:write_bit	16	static
main_copy.c:117:6:write_byte	24	static
main_copy.c:125:5:main	344	static
main_copy.c:238:6:SystemClock_Config	88	static
main_copy.c:282:13:MX_USART2_UART_Init	8	static
main_copy.c:315:13:MX_GPIO_Init	48	static
main_copy.c:351:6:Error_Handler	4	static,ignoring_inline_asm
